Starting
Found x points: 35
xmean: 103.94285714285714
ymean: 126.85714285714286
x2mean: 11928.57142857143
y2mean: 17694.97142857143
xymean: 11895.685714285713
Matrix: {{1124.454, -1290.208}, 
{-1290.208, 1602.237}}
i: 0 lambda: 2675.4833397154607
Eigenvec: {-1290.208, 1551.029}
Check:   M * x_i = {-3451930.446, 4149753.485}
Check: lambda_i * x_i = {-3451930.446, 4149753.485}
c: -62651.24325859774
A: -0.6395065570496531
B: 0.7687856420943999
C: -31.053811324357092
Error: 93641.91689004107
 
i: 1 lambda: 51.20727252943948
Eigenvec: {-1551.029, -1290.208}
Check:   M * x_i = {-79423.988, -66068.041}
Check: lambda_i * x_i = {-79423.988, -66068.041}
c: 324890.5550929195
A: -0.7687856420943999
B: -0.6395065570496531
C: 161.03575083542532
Error: 1792.2545385303429
 
