Starting
Found x points: 35
xmean: 126.85714285714286
ymean: 95.05714285714286
x2mean: 17694.97142857143
y2mean: 10160.314285714287
xymean: 13348.885714285714
Matrix: {{1602.237, 1290.208}, 
{1290.208, 1124.454}}
i: 0 lambda: 2675.483339715457
Eigenvec: {1551.029, 1290.208}
Check:   M * x_i = {4149753.485, 3451930.446}
Check: lambda_i * x_i = {4149753.485, 3451930.446}
c: -319402.6677483935
A: 0.7687856420944004
B: 0.6395065570496524
C: -158.31561617723804
Error: 93641.91689004107
 
i: 1 lambda: 51.20727252943925
Eigenvec: {1290.208, -1551.029}
Check:   M * x_i = {66068.041, -79423.988}
Check: lambda_i * x_i = {66068.041, -79423.988}
c: -16235.692122196167
A: 0.6395065570496524
B: -0.7687856420944004
C: -8.047408058639622
Error: 1792.25453853034
 
